{
  "type": "service_account",
  "project_id": "paimon-db",
  "private_key_id": "7f9ee210c8ffe0ddb7e3c3f0332744ca23a98d2d",
  "private_key": "-----BEGIN PRIVATE KEY-----\nMIIEvQIBADANBgkqhkiG9w0BAQEFAASCBKcwggSjAgEAAoIBAQCzV9xGV2hfLgpy\nOIoyAIArrV4Rhk6LbbtqQcSe0u+14W6wafu5N9MOUGa41O0rvajLRTEeoXflulm0\naUiz9dOonCU56wvS8f0kn1Gw3hDHyVgqq/SWZTkT/WbnjdMjjbMN+D+XFx+y1YTo\nRBElXz0mcnKzgdxB4//9UGPw8IB7tZBq1ka7dWD66dvHPaWMcHqEi/PnWu2SWPp/\n+94eZ93QHCpXzMdKJnd35Au2lJ7TiZWTWd60SsalmQAY6PHOYvR+TQqxs14HhSjz\nsPQNrHEdGXxE4lFLONCFWJkJOFmpDq20BdujBhGgX+7m1LqofEsHmvI9YW/q5l8P\ng9ZNQJDDAgMBAAECggEADWRYYlEXZ4WxNmauCYSe2ldMa/PJT7R2lAoSaM278RGP\nydEDZzxM7VSBpytEBP0mBC/H6c9vryuwLfGitS8V8N3gEo6DroSiPSbZQcmc6F5K\n0CNRCB385vChy4hJDCGbpxJl8gSPBs3Wg98shjIYOq1XKIjGh43cySMRcD91SK3d\n4n6AzDY77xz37yNp2vsEultoHJXWgOnVfq0quBxKWzcxpTJdXqNrAtYM+UnKyR4H\nOOOGMxv2UjuoAmHc17OQQdDpGHKKiBftOHdVUdit/dp/vHQGI5wlBowxuukJQCDC\ng8eF2SbpS3SNvWqN4w+EQsCqlYKJJYnmOO+rDjfCCQKBgQDm3qJp3pkLEglMGXG0\n2IQhGTeSV7erKLndJgkCuymlZok47PumJ80lYP/IMU2NPCbo7C5HAe7VO6FgW8CX\n4VayDLimn59f5Tm2brmirFQhN7iE3TPfJSZIJylKfe/Fd/ckuCcEBXQ5h9u16+S0\n/LhwiuZ169+cmopBLdR6gS3q/wKBgQDG3WaGxgp6DzSUsfadr3kSJuOi+1P2LUy2\nu26wIgAKN1ZHqGWhxFi2FZ9b6/SiDvJrAcagpo9M6q9j/2PhRw3Uv5Zvh2jyb3YD\nG40bL+Ev8qk6wLeMZYrTTc91V8z69Btsv+DOxWFsK1XiuzURQHmODpgQJphmY0tG\nS5bbQ6puPQKBgQDJMpjkHsPNbAiCM2JusopjtfBCLwO3vCROYElWAfpHVNadr5mX\nsfQMcT44Hw9w2E0ojDvAUiTr263FpfBv7Ed7n66EN3PTRJdJL7HD3N7sm/zIfWYp\nP9ze4JIRgzMkKmpNq9cEoCQrxwRoxI1qVRv/qG0zsz4K4ns+Vkxn/pAfzQKBgCm1\n8nU+QKBNZCf0E9gLIAfQpFphAMFXywlg0tyapQt/g9dP2NFPT5QRgPVUzmDXZb1Q\nCAtWJCRr7RG6VYbA0oPXE4SdEEQZYNVSCAy1xDO8YAZ0uYr3GWEspuDj45iXbtEm\nhc6Y09BOXptJzN2relNzeC2bCsge94DtBd1DmhG5AoGAOvlDB1c2otOvMGo/iojo\nGLUIJ9FiddDYTmex2ddwxpKAUdpYfQ5LUnJVpBmwYQC5PDBW+2aKp3SYqwsloAF/\nEBEdZAuky4UxNXOhjw+wVCvkhON71q7DnJn37kEBsFiveF8MvswVymz1WP2Hyk4y\nxBrLcwAryoGREDSaP3Kyyqw=\n-----END PRIVATE KEY-----\n",
  "client_email": "firebase-adminsdk-k17v5@paimon-db.iam.gserviceaccount.com",
  "client_id": "104257293276179072874",
  "auth_uri": "https://accounts.google.com/o/oauth2/auth",
  "token_uri": "https://oauth2.googleapis.com/token",
  "auth_provider_x509_cert_url": "https://www.googleapis.com/oauth2/v1/certs",
  "client_x509_cert_url": "https://www.googleapis.com/robot/v1/metadata/x509/firebase-adminsdk-k17v5%40paimon-db.iam.gserviceaccount.com"
}
